Workflow Examples • bcaquiferdata
…
library(dplyr)
library(readr)

Load cleaned data (will fetch if doesn’t already exist)

wells_lith <- data_read("lithology")

Explore the lithology standardization performed by bcaquiferdata

lith_std <- wells_lith |>
  select(well_tag_number, contains("lith")) |>
  arrange(!is.na(lithology_category))
lith_std
#> # A tibble: 624,560 × 23
#>    well_tag_number lithology_from_ft_bgl lithology_to_ft_bgl lithology_raw_data       lithology_descriptio…¹
#>              <dbl>                 <dbl>               <dbl> <chr>                    <chr>                 
#>  1              11                   164                 187 "red ash"                ""                    
#>  2              13                     1                 120 "\""                     ""                    
#>  3              49                     0                  15 ""                       ""                    
#>  4              62                     0                   0 "backfilled to 217 foot… ""                    
#>  5              73                    25                 170 "delimite w/copper ore"  ""                    
#>  6              73                   190                 380 "copper ore w/delimite"  ""                    
#>  7              88                     0                  65 ""                       ""                    
#>  8              98                     0                  15 ""                       ""                    
#>  9             105                     0                  15 ""                       ""                    
#> 10             163                   200                 210 "gray,clean a little co… ""                    
#> # ℹ 624,550 more rows
#> # ℹ abbreviated name: ¹​lithology_description_code
#> # ℹ 18 more variables: lithology_material_code <chr>, lithology_hardness_code <chr>,
#> #   lithology_colour_code <chr>, lithology_observation <chr>, lithology_from_m <dbl>, lithology_to_m <dbl>,
#> #   lithology_raw_combined <chr>, lith_n <int>, lith_rec <int>, flag_lith_nodepths <lgl>,
#> #   flag_lith_overruns <lgl>, flag_lith_intervals <lgl>, lithology_clean <chr>, lith_primary <chr>,
#> #   lith_secondary <chr>, lith_tertiary <chr>, lithology_extra <chr>, lithology_category <chr>
…
